{
  "project_info": {
    "project_number": "144665241789",
    "firebase_url": "https://ruta-canina-1a7ea.firebaseio.com",
    "project_id": "ruta-canina-1a7ea",
    "storage_bucket": "ruta-canina-1a7ea.appspot.com"
  },
  "client": [
    {
      "client_info": {
        "mobilesdk_app_id": "1:144665241789:android:ef7614715efbab7f",
        "android_client_info": {
          "package_name": "com.sergi.rutacanina"
        }
      },
      "oauth_client": [
        {
          "client_id": "144665241789-j5dk0oh8lsa7c2opb5hibbsc3b4u9njh.apps.googleusercontent.com",
          "client_type": 1,
          "android_info": {
            "package_name": "com.sergi.rutacanina",
            "certificate_hash": "107ee13208dc64bf43223f02ecf9a10d6fdbfe0f"
          }
        },
        {
          "client_id": "144665241789-v6gfk6hh4rd1eo9jpq9f97e5c08dei7f.apps.googleusercontent.com",
          "client_type": 3
        },
        {
          "client_id": "144665241789-v6gfk6hh4rd1eo9jpq9f97e5c08dei7f.apps.googleusercontent.com",
          "client_type": 3
        }
      ],
      "api_key": [
        {
          "current_key": "AIzaSyB5ccbF9djN4Zmwv1rq0_sf1cYXGCrqySg"
        }
      ],
      "services": {
        "analytics_service": {
          "status": 1
        },
        "appinvite_service": {
          "status": 2,
          "other_platform_oauth_client": [
            {
              "client_id": "144665241789-v6gfk6hh4rd1eo9jpq9f97e5c08dei7f.apps.googleusercontent.com",
              "client_type": 3
            },
            {
              "client_id": "144665241789-altvanb6hgm9taus1qdljqqneg9mi1lr.apps.googleusercontent.com",
              "client_type": 2,
              "ios_info": {
                "bundle_id": "com.ismaelsagredo.Ruta-Canina"
              }
            }
          ]
        },
        "ads_service": {
          "status": 2
        }
      }
    }
  ],
  "configuration_version": "1"
}